<svg version="1.1" viewBox="0 0 946 197" xmlns="http://www.w3.org/2000/svg">
<path d="m1132 96.5c61 158-643 292-898 292-303.52 0-588-11-588-176 0-96.829 76.484-207.5 380-207.5 159.59 0 260.17 91.5 360.5 107 178 27.5 705.05-120.28 745.5-15.5z" fill="#afe7ff" fill-opacity=".54"/>
<path d="m975 119.2c74.06 152.32-442.87 266.91-696.97 288.33-302.44 25.493-586.85 38.426-600.7-125.99-8.132-96.487 58.786-213.19 361.23-238.68 159.03-13.404 266.94 69.324 368.21 76.343 179.68 12.452 519.12-101.01 568.24 0z" fill="#afe7ff" fill-opacity=".9"/>
</svg>
